{
  "type": "forge:ore_shapeless",
  "result": {
    "item": "inferiumex:toparite_nugget",
    "count": 9,
    "data": 0
  },
  "ingredients": [
    {"type": "forge:ore_dict", "ore": "ingotToparite"}
  ]
}