{
  "forge_marker": 1,
  "defaults": {
    "textures": {
      "all": "minecraft:blocks/gold_block"
    },
    "model": "inferiumex:gold_barrel",
    "uvlock": "true"
  },
  "variants": {
    "normal": [{}],
    "inventory": [{}]
  }
}