{
  "type": "forge:ore_shaped",
  "result": {
    "item": "inferiumex:laranium_sword",
    "count": 1,
    "data": 0
  },
  "pattern": [
    " I ",
    " I ",
    " S "
  ],
  "key": {
    "I": {
      "type": "forge:ore_dict",
      "ore": "ingotLaranium"
    },
    "S": {
      "type": "forge:ore_dict",
      "ore": "stickObsidian"
    }
  }
}