{
  "parent": "block/block",
  "textures": {
    "0": "#all",
    "particle": "inferiumex:blocks/crystal_block"
  },
  "elements": [
    {
      "name": "blockbottom1",
      "from": [0, 0, 0],
      "to": [16, 1, 1],
      "faces": {
        "north": {"uv": [0, 0, 16, 1], "texture": "#0"},
        "east": {"uv": [0, 0, 1, 1], "texture": "#0"},
        "south": {"uv": [0, 0, 16, 1], "texture": "#0"},
        "west": {"uv": [0, 0, 1, 1], "texture": "#0"},
        "up": {"uv": [0, 0, 16, 1], "texture": "#0"},
        "down": {"uv": [0, 0, 16, 1], "texture": "#0"}
      },
      "type": "cube"
    },
    {
      "name": "blockbottom4",
      "from": [15, 0, 1],
      "to": [16, 1, 15],
      "faces": {
        "east": {"uv": [1, 0, 15, 1], "texture": "#0"},
        "west": {"uv": [0, 0, 16, 1], "texture": "#0"},
        "up": {"uv": [0, 1, 1, 15], "texture": "#0"},
        "down": {"uv": [0, 1, 1, 15], "texture": "#0"}
      },
      "type": "cube"
    },
    {
      "name": "blockbottom3",
      "from": [0, 0, 1],
      "to": [1, 1, 15],
      "faces": {
        "east": {"uv": [1, 0, 15, 1], "texture": "#0"},
        "west": {"uv": [1, 0, 15, 1], "texture": "#0"},
        "up": {"uv": [0, 1, 1, 15], "texture": "#0"},
        "down": {"uv": [0, 1, 1, 15], "texture": "#0"}
      },
      "type": "cube"
    },
    {
      "name": "blockbottom2",
      "from": [0, 0, 15],
      "to": [16, 1, 16],
      "faces": {
        "north": {"uv": [0, 0, 16, 1], "texture": "#0"},
        "east": {"uv": [0, 0, 1, 1], "texture": "#0"},
        "south": {"uv": [0, 0, 16, 1], "texture": "#0"},
        "west": {"uv": [0, 0, 1, 1], "texture": "#0"},
        "up": {"uv": [0, 0, 16, 1], "texture": "#0"},
        "down": {"uv": [0, 0, 16, 1], "texture": "#0"}
      },
      "type": "cube"
    },
    {
      "name": "sidestrut4",
      "from": [15, 1, 0],
      "to": [16, 16, 1],
      "faces": {
        "north": {"uv": [0, 0, 1, 15], "texture": "#0"},
        "east": {"uv": [0, 0, 1, 15], "texture": "#0"},
        "south": {"uv": [0, 0, 1, 15], "texture": "#0"},
        "west": {"uv": [0, 0, 1, 15], "texture": "#0"},
        "up": {"uv": [0, 0, 1, 1], "texture": "#0"}
      },
      "type": "cube"
    },
    {
      "name": "sidestrut3",
      "from": [15, 1, 15],
      "to": [16, 16, 16],
      "faces": {
        "north": {"uv": [0, 0, 1, 15], "texture": "#0"},
        "east": {"uv": [0, 0, 1, 15], "texture": "#0"},
        "south": {"uv": [0, 0, 1, 15], "texture": "#0"},
        "west": {"uv": [0, 0, 1, 15], "texture": "#0"},
        "up": {"uv": [0, 0, 1, 1], "texture": "#0"}
      },
      "type": "cube"
    },
    {
      "name": "sidestrut2",
      "from": [0, 1, 15],
      "to": [1, 16, 16],
      "faces": {
        "north": {"uv": [0, 0, 1, 15], "texture": "#0"},
        "east": {"uv": [0, 0, 1, 15], "texture": "#0"},
        "south": {"uv": [0, 0, 1, 15], "texture": "#0"},
        "west": {"uv": [0, 0, 1, 15], "texture": "#0"},
        "up": {"uv": [0, 0, 1, 1], "texture": "#0"}
      },
      "type": "cube"
    },
    {
      "name": "sidestrut1",
      "from": [0, 1, 0],
      "to": [1, 16, 1],
      "faces": {
        "north": {"uv": [0, 0, 1, 15], "texture": "#0"},
        "east": {"uv": [0, 0, 1, 15], "texture": "#0"},
        "south": {"uv": [0, 0, 1, 15], "texture": "#0"},
        "west": {"uv": [0, 0, 1, 15], "texture": "#0"},
        "up": {"uv": [0, 0, 1, 1], "texture": "#0"}
      },
      "type": "cube"
    },
    {
      "name": "blocktop4",
      "from": [15, 15, 1],
      "to": [16, 16, 15],
      "faces": {
        "east": {"uv": [1, 0, 15, 1], "texture": "#0"},
        "west": {"uv": [1, 0, 15, 1], "texture": "#0"},
        "up": {"uv": [0, 1, 1, 15], "texture": "#0"},
        "down": {"uv": [0, 1, 1, 15], "texture": "#0"}
      },
      "type": "cube"
    },
    {
      "name": "blocktop3",
      "from": [0, 15, 1],
      "to": [1, 16, 15],
      "faces": {
        "east": {"uv": [1, 0, 15, 1], "texture": "#0"},
        "west": {"uv": [1, 0, 15, 1], "texture": "#0"},
        "up": {"uv": [0, 1, 1, 15], "texture": "#0"},
        "down": {"uv": [0, 1, 1, 15], "texture": "#0"}
      },
      "type": "cube"
    },
    {
      "name": "blocktop2",
      "from": [1, 15, 0],
      "to": [15, 16, 1],
      "faces": {
        "north": {"uv": [1, 0, 15, 1], "texture": "#0"},
        "south": {"uv": [1, 0, 15, 1], "texture": "#0"},
        "up": {"uv": [1, 0, 15, 1], "texture": "#0"},
        "down": {"uv": [1, 0, 15, 1], "texture": "#0"}
      },
      "type": "cube"
    },
    {
      "name": "blocktop1",
      "from": [1, 15, 15],
      "to": [15, 16, 16],
      "faces": {
        "north": {"uv": [1, 0, 15, 1], "texture": "#0"},
        "south": {"uv": [1, 0, 15, 1], "texture": "#0"},
        "up": {"uv": [1, 0, 15, 1], "texture": "#0"},
        "down": {"uv": [1, 0, 15, 1], "texture": "#0"}
      },
      "type": "cube"
    },
    {
      "name": "cube1",
      "from": [14, 0, 11],
      "to": [15, 1, 14],
      "faces": {
        "north": {"uv": [1, 4, 2, 5], "texture": "#0"},
        "west": {
          "uv": [2, 1, 5, 2],
          "texture": "#0",
          "rotation": 180
        },
        "up": {
          "uv": [1, 2, 2, 5],
          "texture": "#0",
          "rotation": 180
        },
        "down": {"uv": [1, 2, 2, 5], "texture": "#0"}
      },
      "type": "cube"
    },
    {
      "name": "cube2",
      "from": [1, 0, 2],
      "to": [2, 1, 5],
      "faces": {
        "east": {
          "uv": [2, 1, 5, 2],
          "texture": "#0",
          "rotation": 180
        },
        "south": {"uv": [1, 4, 2, 5], "texture": "#0"},
        "up": {"uv": [1, 2, 2, 5], "texture": "#0"},
        "down": {
          "uv": [1, 2, 2, 5],
          "texture": "#0",
          "rotation": 180
        }
      },
      "type": "cube"
    },
    {
      "name": "cube3",
      "from": [11, 0, 14],
      "to": [15, 1, 15],
      "faces": {
        "north": {"uv": [1, 1, 5, 2], "texture": "#0"},
        "west": {"uv": [4, 1, 5, 2], "texture": "#0"},
        "up": {
          "uv": [1, 1, 5, 2],
          "texture": "#0",
          "rotation": 180
        },
        "down": {
          "uv": [1, 1, 5, 2],
          "texture": "#0",
          "rotation": 180
        }
      },
      "type": "cube"
    },
    {
      "name": "cube4",
      "from": [1, 0, 11],
      "to": [2, 1, 15],
      "faces": {
        "north": {"uv": [4, 1, 5, 2], "texture": "#0"},
        "east": {"uv": [1, 1, 5, 2], "texture": "#0"},
        "up": {
          "uv": [1, 1, 2, 5],
          "texture": "#0",
          "rotation": 180
        },
        "down": {"uv": [1, 1, 2, 5], "texture": "#0"}
      },
      "type": "cube"
    },
    {
      "name": "cube5",
      "from": [1, 0, 1],
      "to": [5, 1, 2],
      "faces": {
        "east": {"uv": [4, 1, 5, 2], "texture": "#0"},
        "south": {"uv": [1, 1, 5, 2], "texture": "#0"},
        "up": {"uv": [1, 1, 5, 2], "texture": "#0"},
        "down": {"uv": [1, 1, 5, 2], "texture": "#0"}
      },
      "type": "cube"
    },
    {
      "name": "cube6",
      "from": [14, 0, 1],
      "to": [15, 1, 5],
      "faces": {
        "north": {
          "uv": [0, 0, 1, 1],
          "texture": "#missing"
        },
        "south": {"uv": [4, 1, 5, 2], "texture": "#0"},
        "west": {"uv": [1, 1, 5, 2], "texture": "#0"},
        "up": {"uv": [1, 1, 2, 5], "texture": "#0"},
        "down": {
          "uv": [1, 1, 2, 5],
          "texture": "#0",
          "rotation": 180
        }
      },
      "type": "cube"
    },
    {
      "name": "cube7",
      "from": [2, 0, 14],
      "to": [5, 1, 15],
      "faces": {
        "north": {
          "uv": [2, 1, 5, 2],
          "texture": "#0",
          "rotation": 180
        },
        "east": {"uv": [4, 1, 5, 2], "texture": "#0"},
        "up": {"uv": [2, 1, 5, 2], "texture": "#0"},
        "down": {"uv": [2, 1, 5, 2], "texture": "#0"}
      },
      "type": "cube"
    },
    {
      "name": "cube8",
      "from": [11, 0, 1],
      "to": [14, 1, 2],
      "faces": {
        "south": {
          "uv": [2, 1, 5, 2],
          "texture": "#0",
          "rotation": 180
        },
        "west": {"uv": [4, 1, 5, 2], "texture": "#0"},
        "up": {
          "uv": [2, 1, 5, 2],
          "texture": "#0",
          "rotation": 180
        },
        "down": {
          "uv": [2, 1, 5, 2],
          "texture": "#0",
          "rotation": 180
        }
      },
      "type": "cube"
    },
    {
      "name": "cube9",
      "from": [14, 1, 1],
      "to": [15, 2, 2],
      "faces": {
        "south": {"uv": [1, 1, 2, 2], "texture": "#0"},
        "west": {"uv": [1, 1, 2, 2], "texture": "#0"},
        "up": {"uv": [1, 1, 2, 2], "texture": "#0"}
      },
      "type": "cube"
    },
    {
      "name": "cube10",
      "from": [14, 1, 14],
      "to": [15, 2, 15],
      "faces": {
        "north": {"uv": [1, 1, 2, 2], "texture": "#0"},
        "west": {"uv": [1, 1, 2, 2], "texture": "#0"},
        "up": {"uv": [1, 1, 2, 2], "texture": "#0"}
      },
      "type": "cube"
    },
    {
      "name": "cube11",
      "from": [1, 1, 14],
      "to": [2, 2, 15],
      "faces": {
        "north": {"uv": [1, 1, 2, 2], "texture": "#0"},
        "east": {"uv": [1, 1, 2, 2], "texture": "#0"},
        "up": {"uv": [1, 1, 2, 2], "texture": "#0"}
      },
      "type": "cube"
    },
    {
      "name": "cube12",
      "from": [1, 1, 1],
      "to": [2, 2, 2],
      "faces": {
        "east": {"uv": [1, 1, 2, 2], "texture": "#0"},
        "south": {"uv": [1, 1, 2, 2], "texture": "#0"},
        "up": {"uv": [1, 1, 2, 2], "texture": "#0"}
      },
      "type": "cube"
    },
    {
      "name": "cube1",
      "from": [11, 1, 15],
      "to": [15, 2, 16],
      "faces": {
        "north": {"uv": [1, 1, 5, 2], "texture": "#0"},
        "south": {
          "uv": [1, 1, 5, 2],
          "texture": "#0",
          "rotation": 180
        },
        "west": {"uv": [4, 1, 5, 2], "texture": "#0"},
        "up": {
          "uv": [1, 1, 5, 2],
          "texture": "#0",
          "rotation": 180
        }
      },
      "type": "cube"
    },
    {
      "name": "cube2",
      "from": [0, 1, 2],
      "to": [1, 2, 5],
      "faces": {
        "east": {
          "uv": [2, 1, 5, 2],
          "texture": "#0",
          "rotation": 180
        },
        "south": {"uv": [4, 1, 5, 2], "texture": "#0"},
        "west": {"uv": [2, 1, 5, 2], "texture": "#0"},
        "up": {"uv": [1, 2, 2, 5], "texture": "#0"}
      },
      "type": "cube"
    },
    {
      "name": "cube3",
      "from": [14, 2, 15],
      "to": [15, 5, 16],
      "faces": {
        "north": {
          "uv": [1, 2, 2, 5],
          "texture": "#0",
          "rotation": 180
        },
        "south": {
          "uv": [1, 2, 2, 5],
          "texture": "#0",
          "rotation": 180
        },
        "west": {
          "uv": [1, 2, 2, 5],
          "texture": "#0",
          "rotation": 180
        },
        "up": {"uv": [4, 1, 5, 2], "texture": "#0"},
        "down": {"uv": [0, 0, 1, 1], "texture": "#missing"}
      },
      "type": "cube"
    },
    {
      "name": "cube4",
      "from": [0, 1, 11],
      "to": [1, 2, 15],
      "faces": {
        "north": {"uv": [4, 1, 5, 2], "texture": "#0"},
        "east": {"uv": [1, 1, 5, 2], "texture": "#0"},
        "west": {
          "uv": [1, 1, 5, 2],
          "texture": "#0",
          "rotation": 180
        },
        "up": {
          "uv": [1, 1, 2, 5],
          "texture": "#0",
          "rotation": 180
        }
      },
      "type": "cube"
    },
    {
      "name": "cube5",
      "from": [1, 1, 15],
      "to": [2, 5, 16],
      "faces": {
        "north": {
          "uv": [1, 1, 2, 5],
          "texture": "#0",
          "rotation": 180
        },
        "east": {
          "uv": [1, 1, 2, 5],
          "texture": "#0",
          "rotation": 180
        },
        "south": {
          "uv": [1, 1, 2, 5],
          "texture": "#0",
          "rotation": 180
        },
        "up": {"uv": [4, 1, 5, 2], "texture": "#0"}
      },
      "type": "cube"
    },
    {
      "name": "cube6",
      "from": [1, 1, 0],
      "to": [5, 2, 1],
      "faces": {
        "north": {
          "uv": [1, 1, 5, 2],
          "texture": "#0",
          "rotation": 180
        },
        "east": {"uv": [4, 1, 5, 2], "texture": "#0"},
        "south": {"uv": [1, 1, 5, 2], "texture": "#0"},
        "up": {"uv": [1, 1, 5, 2], "texture": "#0"}
      },
      "type": "cube"
    },
    {
      "name": "cube7",
      "from": [15, 1, 1],
      "to": [16, 2, 5],
      "faces": {
        "east": {
          "uv": [1, 1, 5, 2],
          "texture": "#0",
          "rotation": 180
        },
        "south": {"uv": [4, 1, 5, 2], "texture": "#0"},
        "west": {"uv": [1, 1, 5, 2], "texture": "#0"},
        "up": {"uv": [1, 1, 2, 5], "texture": "#0"}
      },
      "type": "cube"
    },
    {
      "name": "cube8",
      "from": [2, 1, 15],
      "to": [5, 2, 16],
      "faces": {
        "north": {
          "uv": [2, 1, 5, 2],
          "texture": "#0",
          "rotation": 180
        },
        "east": {"uv": [4, 1, 5, 2], "texture": "#0"},
        "south": {"uv": [2, 1, 5, 2], "texture": "#0"},
        "up": {"uv": [2, 1, 5, 2], "texture": "#0"}
      },
      "type": "cube"
    },
    {
      "name": "cube9",
      "from": [11, 1, 0],
      "to": [14, 2, 1],
      "faces": {
        "north": {"uv": [2, 1, 5, 2], "texture": "#0"},
        "south": {
          "uv": [2, 1, 5, 2],
          "texture": "#0",
          "rotation": 180
        },
        "west": {"uv": [4, 1, 5, 2], "texture": "#0"},
        "up": {
          "uv": [2, 1, 5, 2],
          "texture": "#0",
          "rotation": 180
        }
      },
      "type": "cube"
    },
    {
      "name": "cube10",
      "from": [14, 1, 0],
      "to": [15, 5, 1],
      "faces": {
        "north": {
          "uv": [1, 1, 2, 5],
          "texture": "#0",
          "rotation": 180
        },
        "south": {
          "uv": [1, 1, 2, 5],
          "texture": "#0",
          "rotation": 180
        },
        "west": {
          "uv": [1, 1, 2, 5],
          "texture": "#0",
          "rotation": 180
        },
        "up": {"uv": [4, 1, 5, 2], "texture": "#0"}
      },
      "type": "cube"
    },
    {
      "name": "cube11",
      "from": [1, 2, 0],
      "to": [2, 5, 1],
      "faces": {
        "north": {
          "uv": [1, 2, 2, 5],
          "texture": "#0",
          "rotation": 180
        },
        "east": {
          "uv": [1, 2, 2, 5],
          "texture": "#0",
          "rotation": 180
        },
        "south": {
          "uv": [1, 2, 2, 5],
          "texture": "#0",
          "rotation": 180
        },
        "up": {"uv": [4, 1, 5, 2], "texture": "#0"}
      },
      "type": "cube"
    },
    {
      "name": "cube12",
      "from": [0, 1, 1],
      "to": [1, 5, 2],
      "faces": {
        "east": {
          "uv": [1, 1, 2, 5],
          "texture": "#0",
          "rotation": 180
        },
        "south": {
          "uv": [1, 1, 2, 5],
          "texture": "#0",
          "rotation": 180
        },
        "west": {
          "uv": [1, 1, 2, 5],
          "texture": "#0",
          "rotation": 180
        },
        "up": {"uv": [4, 1, 5, 2], "texture": "#0"}
      },
      "type": "cube"
    },
    {
      "name": "cube13",
      "from": [0, 2, 14],
      "to": [1, 5, 15],
      "faces": {
        "north": {
          "uv": [1, 2, 2, 5],
          "texture": "#0",
          "rotation": 180
        },
        "east": {
          "uv": [1, 2, 2, 5],
          "texture": "#0",
          "rotation": 180
        },
        "west": {
          "uv": [1, 2, 2, 5],
          "texture": "#0",
          "rotation": 180
        },
        "up": {"uv": [4, 1, 5, 2], "texture": "#0"}
      },
      "type": "cube"
    },
    {
      "name": "cube14",
      "from": [15, 1, 14],
      "to": [16, 5, 15],
      "faces": {
        "north": {
          "uv": [1, 1, 2, 5],
          "texture": "#0",
          "rotation": 180
        },
        "east": {
          "uv": [1, 1, 2, 5],
          "texture": "#0",
          "rotation": 180
        },
        "west": {
          "uv": [1, 1, 2, 5],
          "texture": "#0",
          "rotation": 180
        },
        "up": {"uv": [4, 1, 5, 2], "texture": "#0"}
      },
      "type": "cube"
    },
    {
      "name": "cube15",
      "from": [15, 1, 11],
      "to": [16, 2, 14],
      "faces": {
        "north": {"uv": [4, 1, 5, 2], "texture": "#0"},
        "east": {"uv": [2, 1, 5, 2], "texture": "#0"},
        "west": {
          "uv": [2, 1, 5, 2],
          "texture": "#0",
          "rotation": 180
        },
        "up": {
          "uv": [1, 2, 2, 5],
          "texture": "#0",
          "rotation": 180
        }
      },
      "type": "cube"
    },
    {
      "name": "cube16",
      "from": [15, 2, 1],
      "to": [16, 5, 2],
      "faces": {
        "east": {
          "uv": [1, 2, 2, 5],
          "texture": "#0",
          "rotation": 180
        },
        "south": {
          "uv": [1, 2, 2, 5],
          "texture": "#0",
          "rotation": 180
        },
        "west": {
          "uv": [1, 2, 2, 5],
          "texture": "#0",
          "rotation": 180
        },
        "up": {"uv": [4, 1, 5, 2], "texture": "#0"}
      },
      "type": "cube"
    },
    {
      "name": "cube17",
      "from": [15, 11, 1],
      "to": [16, 14, 2],
      "faces": {
        "east": {"uv": [1, 2, 2, 5], "texture": "#0"},
        "south": {"uv": [1, 2, 2, 5], "texture": "#0"},
        "west": {"uv": [1, 2, 2, 5], "texture": "#0"},
        "down": {"uv": [1, 4, 2, 5], "texture": "#0"}
      },
      "type": "cube"
    },
    {
      "name": "cube18",
      "from": [15, 14, 1],
      "to": [16, 15, 5],
      "faces": {
        "east": {
          "uv": [1, 1, 5, 2],
          "texture": "#0",
          "rotation": 180
        },
        "south": {"uv": [4, 1, 5, 2], "texture": "#0"},
        "west": {"uv": [1, 1, 5, 2], "texture": "#0"},
        "down": {
          "uv": [1, 1, 2, 5],
          "texture": "#0",
          "rotation": 180
        }
      },
      "type": "cube"
    },
    {
      "name": "cube19",
      "from": [15, 14, 11],
      "to": [16, 15, 15],
      "faces": {
        "north": {"uv": [4, 1, 5, 2], "texture": "#0"},
        "east": {"uv": [1, 1, 5, 2], "texture": "#0"},
        "west": {
          "uv": [1, 1, 5, 2],
          "texture": "#0",
          "rotation": 180
        },
        "down": {"uv": [1, 1, 2, 5], "texture": "#0"}
      },
      "type": "cube"
    },
    {
      "name": "cube20",
      "from": [11, 14, 15],
      "to": [15, 15, 16],
      "faces": {
        "north": {"uv": [1, 1, 5, 2], "texture": "#0"},
        "south": {
          "uv": [1, 1, 5, 2],
          "texture": "#0",
          "rotation": 180
        },
        "west": {"uv": [4, 1, 5, 2], "texture": "#0"},
        "down": {
          "uv": [1, 1, 5, 2],
          "texture": "#0",
          "rotation": 180
        }
      },
      "type": "cube"
    },
    {
      "name": "cube21",
      "from": [15, 11, 14],
      "to": [16, 14, 15],
      "faces": {
        "north": {"uv": [1, 2, 2, 5], "texture": "#0"},
        "east": {"uv": [1, 2, 2, 5], "texture": "#0"},
        "west": {"uv": [1, 2, 2, 5], "texture": "#0"},
        "down": {"uv": [4, 1, 5, 2], "texture": "#0"}
      },
      "type": "cube"
    },
    {
      "name": "cube22",
      "from": [14, 11, 15],
      "to": [15, 14, 16],
      "faces": {
        "north": {"uv": [1, 2, 2, 5], "texture": "#0"},
        "south": {"uv": [1, 2, 2, 5], "texture": "#0"},
        "west": {"uv": [1, 2, 2, 5], "texture": "#0"},
        "down": {"uv": [4, 1, 5, 2], "texture": "#0"}
      },
      "type": "cube"
    },
    {
      "name": "cube23",
      "from": [1, 11, 15],
      "to": [2, 14, 16],
      "faces": {
        "north": {"uv": [1, 2, 2, 5], "texture": "#0"},
        "east": {"uv": [1, 2, 2, 5], "texture": "#0"},
        "south": {"uv": [1, 2, 2, 5], "texture": "#0"},
        "down": {"uv": [4, 1, 5, 2], "texture": "#0"}
      },
      "type": "cube"
    },
    {
      "name": "cube24",
      "from": [1, 14, 15],
      "to": [5, 15, 16],
      "faces": {
        "north": {
          "uv": [1, 1, 5, 2],
          "texture": "#0",
          "rotation": 180
        },
        "east": {"uv": [4, 1, 5, 2], "texture": "#0"},
        "south": {"uv": [1, 1, 5, 2], "texture": "#0"},
        "down": {"uv": [1, 1, 5, 2], "texture": "#0"}
      },
      "type": "cube"
    },
    {
      "name": "cube25",
      "from": [0, 14, 11],
      "to": [1, 15, 15],
      "faces": {
        "north": {"uv": [4, 1, 5, 2], "texture": "#0"},
        "east": {"uv": [1, 1, 5, 2], "texture": "#0"},
        "west": {
          "uv": [1, 1, 5, 2],
          "texture": "#0",
          "rotation": 180
        },
        "down": {"uv": [1, 1, 2, 5], "texture": "#0"}
      },
      "type": "cube"
    },
    {
      "name": "cube26",
      "from": [0, 11, 14],
      "to": [1, 14, 15],
      "faces": {
        "north": {"uv": [1, 2, 2, 5], "texture": "#0"},
        "east": {"uv": [1, 2, 2, 5], "texture": "#0"},
        "west": {"uv": [1, 2, 2, 5], "texture": "#0"},
        "down": {"uv": [4, 1, 5, 2], "texture": "#0"}
      },
      "type": "cube"
    },
    {
      "name": "cube27",
      "from": [0, 11, 1],
      "to": [1, 14, 2],
      "faces": {
        "east": {"uv": [1, 2, 2, 5], "texture": "#0"},
        "south": {"uv": [1, 2, 2, 5], "texture": "#0"},
        "west": {"uv": [1, 2, 2, 5], "texture": "#0"},
        "down": {"uv": [4, 1, 5, 2], "texture": "#0"}
      },
      "type": "cube"
    },
    {
      "name": "cube28",
      "from": [0, 14, 1],
      "to": [1, 15, 5],
      "faces": {
        "east": {
          "uv": [1, 1, 5, 2],
          "texture": "#0",
          "rotation": 180
        },
        "south": {"uv": [4, 1, 5, 2], "texture": "#0"},
        "west": {"uv": [1, 1, 5, 2], "texture": "#0"},
        "down": {
          "uv": [1, 1, 2, 5],
          "texture": "#0",
          "rotation": 180
        }
      },
      "type": "cube"
    },
    {
      "name": "cube29",
      "from": [1, 14, 0],
      "to": [5, 15, 1],
      "faces": {
        "north": {
          "uv": [1, 1, 5, 2],
          "texture": "#0",
          "rotation": 180
        },
        "east": {"uv": [4, 1, 5, 2], "texture": "#0"},
        "south": {"uv": [1, 1, 5, 2], "texture": "#0"},
        "down": {"uv": [1, 1, 5, 2], "texture": "#0"}
      },
      "type": "cube"
    },
    {
      "name": "cube30",
      "from": [1, 11, 0],
      "to": [2, 14, 1],
      "faces": {
        "north": {"uv": [1, 2, 2, 5], "texture": "#0"},
        "east": {"uv": [1, 2, 2, 5], "texture": "#0"},
        "south": {"uv": [1, 2, 2, 5], "texture": "#0"},
        "down": {"uv": [4, 1, 5, 2], "texture": "#0"}
      },
      "type": "cube"
    },
    {
      "name": "cube31",
      "from": [14, 11, 0],
      "to": [15, 14, 1],
      "faces": {
        "north": {"uv": [1, 2, 2, 5], "texture": "#0"},
        "south": {"uv": [1, 2, 2, 5], "texture": "#0"},
        "west": {"uv": [1, 1, 2, 5], "texture": "#0"},
        "down": {"uv": [4, 1, 5, 2], "texture": "#0"}
      },
      "type": "cube"
    },
    {
      "name": "cube32",
      "from": [11, 14, 0],
      "to": [15, 15, 1],
      "faces": {
        "north": {"uv": [1, 1, 5, 2], "texture": "#0"},
        "south": {
          "uv": [1, 1, 5, 2],
          "texture": "#0",
          "rotation": 180
        },
        "west": {"uv": [4, 1, 5, 2], "texture": "#0"},
        "down": {
          "uv": [1, 1, 5, 2],
          "texture": "#0",
          "rotation": 180
        }
      },
      "type": "cube"
    },
    {
      "name": "cube1",
      "from": [14, 15, 11],
      "to": [15, 16, 14],
      "faces": {
        "north": {"uv": [4, 1, 5, 2], "texture": "#0"},
        "west": {
          "uv": [2, 1, 5, 2],
          "texture": "#0",
          "rotation": 180
        },
        "up": {
          "uv": [1, 2, 2, 5],
          "texture": "#0",
          "rotation": 180
        },
        "down": {"uv": [1, 2, 2, 5], "texture": "#0"}
      },
      "type": "cube"
    },
    {
      "name": "cube2",
      "from": [1, 15, 2],
      "to": [2, 16, 5],
      "faces": {
        "east": {
          "uv": [2, 1, 5, 2],
          "texture": "#0",
          "rotation": 180
        },
        "south": {"uv": [4, 1, 5, 2], "texture": "#0"},
        "up": {"uv": [1, 2, 2, 5], "texture": "#0"},
        "down": {"uv": [1, 2, 2, 5], "texture": "#0"}
      },
      "type": "cube"
    },
    {
      "name": "cube3",
      "from": [11, 15, 14],
      "to": [15, 16, 15],
      "faces": {
        "north": {"uv": [1, 1, 5, 2], "texture": "#0"},
        "west": {"uv": [4, 1, 5, 2], "texture": "#0"},
        "up": {
          "uv": [1, 1, 5, 2],
          "texture": "#0",
          "rotation": 180
        },
        "down": {
          "uv": [1, 1, 5, 2],
          "texture": "#0",
          "rotation": 180
        }
      },
      "type": "cube"
    },
    {
      "name": "cube4",
      "from": [1, 15, 11],
      "to": [2, 16, 15],
      "faces": {
        "north": {"uv": [4, 1, 5, 2], "texture": "#0"},
        "east": {"uv": [1, 1, 5, 2], "texture": "#0"},
        "up": {
          "uv": [1, 1, 2, 5],
          "texture": "#0",
          "rotation": 180
        },
        "down": {"uv": [1, 1, 2, 5], "texture": "#0"}
      },
      "type": "cube"
    },
    {
      "name": "cube5",
      "from": [1, 15, 1],
      "to": [5, 16, 2],
      "faces": {
        "east": {"uv": [4, 1, 5, 2], "texture": "#0"},
        "south": {"uv": [1, 1, 5, 2], "texture": "#0"},
        "up": {"uv": [1, 1, 5, 2], "texture": "#0"},
        "down": {"uv": [1, 1, 5, 2], "texture": "#0"}
      },
      "type": "cube"
    },
    {
      "name": "cube6",
      "from": [14, 15, 1],
      "to": [15, 16, 5],
      "faces": {
        "south": {"uv": [4, 1, 5, 2], "texture": "#0"},
        "west": {"uv": [1, 1, 5, 2], "texture": "#0"},
        "up": {"uv": [1, 1, 2, 5], "texture": "#0"},
        "down": {
          "uv": [1, 1, 2, 5],
          "texture": "#0",
          "rotation": 180
        }
      },
      "type": "cube"
    },
    {
      "name": "cube7",
      "from": [2, 15, 14],
      "to": [5, 16, 15],
      "faces": {
        "north": {
          "uv": [2, 1, 5, 2],
          "texture": "#0",
          "rotation": 180
        },
        "east": {"uv": [4, 1, 5, 2], "texture": "#0"},
        "up": {"uv": [2, 1, 5, 2], "texture": "#0"},
        "down": {"uv": [2, 1, 5, 2], "texture": "#0"}
      },
      "type": "cube"
    },
    {
      "name": "cube8",
      "from": [11, 15, 1],
      "to": [14, 16, 2],
      "faces": {
        "south": {
          "uv": [2, 1, 5, 2],
          "texture": "#0",
          "rotation": 180
        },
        "west": {"uv": [4, 1, 5, 2], "texture": "#0"},
        "up": {
          "uv": [2, 1, 5, 2],
          "texture": "#0",
          "rotation": 180
        },
        "down": {
          "uv": [2, 1, 5, 2],
          "texture": "#0",
          "rotation": 180
        }
      },
      "type": "cube"
    },
    {
      "name": "cube9",
      "from": [14, 14, 1],
      "to": [15, 15, 2],
      "faces": {
        "south": {"uv": [1, 1, 2, 2], "texture": "#0"},
        "west": {"uv": [1, 1, 2, 2], "texture": "#0"},
        "down": {"uv": [1, 1, 2, 2], "texture": "#0"}
      },
      "type": "cube"
    },
    {
      "name": "cube10",
      "from": [14, 14, 14],
      "to": [15, 15, 15],
      "faces": {
        "north": {"uv": [1, 1, 2, 2], "texture": "#0"},
        "west": {"uv": [1, 1, 2, 2], "texture": "#0"},
        "down": {"uv": [1, 1, 2, 2], "texture": "#0"}
      },
      "type": "cube"
    },
    {
      "name": "cube11",
      "from": [1, 14, 14],
      "to": [2, 15, 15],
      "faces": {
        "north": {"uv": [1, 1, 2, 2], "texture": "#0"},
        "east": {"uv": [1, 1, 2, 2], "texture": "#0"},
        "down": {"uv": [1, 1, 2, 2], "texture": "#0"}
      },
      "type": "cube"
    },
    {
      "name": "cube12",
      "from": [1, 14, 1],
      "to": [2, 15, 2],
      "faces": {
        "east": {"uv": [1, 1, 2, 2], "texture": "#0"},
        "south": {"uv": [1, 1, 2, 2], "texture": "#0"},
        "down": {"uv": [1, 1, 2, 2], "texture": "#0"}
      },
      "type": "cube"
    }
  ]
}