{
  "type": "forge:ore_shaped",
  "result": {
    "item": "inferiumex:crystal_frame_fragment",
    "count": 1,
    "data": 0
  },
  "pattern": [
    "FFF",
    "F F",
    "FFF"
  ],
  "key": {
    "F": {
      "type": "forge:ore_dict",
      "ore": "fragmentCrystal"
    }
  }
}