{
  "type": "forge:ore_shaped",
  "result": {
    "item": "inferiumex:metal_slab",
    "count": 1,
    "data": 2
  },
  "pattern": [
    "BBB"
  ],
  "key": {
    "B": {
      "type": "forge:ore_dict",
      "ore": "blockDiamond"
    }
  }
}